{
	"info": {
		"_postman_id": "c3c08230-0dc0-4e18-a993-68c496e88376",
		"name": "Curso Laravel",
		"schema": "https://schema.getpostman.com/json/collection/v2.1.0/collection.json"
	},
	"item": [
		{
			"name": "Auth",
			"description": null,
			"item": [
				{
					"name": "{{host}}/auth/token",
					"event": [
						{
							"listen": "test",
							"script": {
								"id": "92876923-1eaa-4956-bb1f-efd13a55e80e",
								"type": "text/javascript",
								"exec": [
									"postman.setEnvironmentVariable(\"UserToken\", JSON.parse(responseBody).access_token);"
								]
							}
						}
					],
					"request": {
						"method": "POST",
						"header": [
							{
								"key": "Content-Type",
								"value": "application/json"
							}
						],
						"body": {
							"mode": "raw",
							"raw": "{\n\t \"grant_type\" : \"password\",\n     \"client_id\" : \"1\",\n     \"client_secret\" : \"iNiM3nP3KTrwvX1UPjeBFnkTFwJsplmFEhQIjg25\",\n     \"username\" : \"admin@gmail.com\",\n     \"password\" : \"123\",\n     \"scope\" : \"\"\n}"
						},
						"url": {
							"raw": "{{host}}/oauth/token",
							"host": [
								"{{host}}"
							],
							"path": [
								"oauth",
								"token"
							]
						}
					},
					"response": []
				}
			]
		},
		{
			"name": "User",
			"description": null,
			"item": [
				{
					"name": "{{host}}/api/user",
					"event": [
						{
							"listen": "test",
							"script": {
								"id": "f129ce28-add1-46a1-a6e3-dd33e638b40d",
								"type": "text/javascript",
								"exec": [
									"postman.setEnvironmentVariable(\"UserId\", JSON.parse(responseBody)[0].id);"
								]
							}
						}
					],
					"request": {
						"method": "GET",
						"header": [
							{
								"key": "Authorization",
								"value": "Bearer  {{UserToken}}"
							}
						],
						"body": {
							"mode": "raw",
							"raw": ""
						},
						"url": {
							"raw": "{{host}}/api/user",
							"host": [
								"{{host}}"
							],
							"path": [
								"api",
								"user"
							]
						}
					},
					"response": []
				},
				{
					"name": "{{host}}/api/user",
					"request": {
						"method": "POST",
						"header": [
							{
								"key": "Content-Type",
								"value": "application/json"
							},
							{
								"key": "Authorization",
								"value": "Bearer {{UserToken}}"
							}
						],
						"body": {
							"mode": "raw",
							"raw": "{\n  \"name\":\"Nataniel\",\n  \"email\":\"asdfafsd@gmail.com\",\n  \"password\":\"123\",\n  \"modules\":[\n  \t\t{\n  \t\t\t\"id\":\"{{ModuleId}}\",\n  \t\t\t\"current_module\":true\n  \t\t}\n  \t]\n}"
						},
						"url": {
							"raw": "{{host}}/api/user",
							"host": [
								"{{host}}"
							],
							"path": [
								"api",
								"user"
							]
						}
					},
					"response": []
				},
				{
					"name": "{{host}}/api/user/picture/{id}",
					"request": {
						"method": "POST",
						"header": [
							{
								"key": "Content-Type",
								"value": "application/json"
							},
							{
								"key": "Authorization",
								"value": "Bearer {{UserToken}}"
							}
						],
						"body": {
							"mode": "formdata",
							"formdata": [
								{
									"key": "picture",
									"value": "",
									"description": "",
									"type": "file"
								}
							]
						},
						"url": {
							"raw": "{{host}}/api/user/picture/{{UserId}}",
							"host": [
								"{{host}}"
							],
							"path": [
								"api",
								"user",
								"picture",
								"{{UserId}}"
							]
						}
					},
					"response": []
				},
				{
					"name": "{{host}}/api/user/{id}",
					"event": [
						{
							"listen": "test",
							"script": {
								"id": "f959454a-5156-466e-ae70-4047353ddc35",
								"type": "text/javascript",
								"exec": [
									""
								]
							}
						}
					],
					"request": {
						"method": "GET",
						"header": [
							{
								"key": "Authorization",
								"value": "Bearer {{UserToken}}"
							}
						],
						"body": {
							"mode": "raw",
							"raw": ""
						},
						"url": {
							"raw": "{{host}}/api/user/{{UserId}}",
							"host": [
								"{{host}}"
							],
							"path": [
								"api",
								"user",
								"{{UserId}}"
							]
						}
					},
					"response": []
				},
				{
					"name": "{{host}}/api/user/{id}",
					"request": {
						"method": "PUT",
						"header": [
							{
								"key": "Content-Type",
								"value": "application/json"
							}
						],
						"body": {
							"mode": "raw",
							"raw": "{\n  \"name\":\"Nataniel\",\n  \"email\":\"fulano@gmail.com\"\n}"
						},
						"url": {
							"raw": "{{host}}/api/user/{{UserId}}",
							"host": [
								"{{host}}"
							],
							"path": [
								"api",
								"user",
								"{{UserId}}"
							]
						}
					},
					"response": []
				},
				{
					"name": "{{host}}/api/user/{id}",
					"event": [
						{
							"listen": "test",
							"script": {
								"id": "f959454a-5156-466e-ae70-4047353ddc35",
								"type": "text/javascript",
								"exec": [
									""
								]
							}
						}
					],
					"request": {
						"method": "DELETE",
						"header": [],
						"body": {
							"mode": "raw",
							"raw": ""
						},
						"url": {
							"raw": "{{host}}/api/user/{{UserId}}",
							"host": [
								"{{host}}"
							],
							"path": [
								"api",
								"user",
								"{{UserId}}"
							]
						}
					},
					"response": []
				}
			]
		},
		{
			"name": "Instituition",
			"description": null,
			"item": [
				{
					"name": "{{host}}/api/instituition",
					"event": [
						{
							"listen": "test",
							"script": {
								"id": "403bbaea-8b5c-4e8b-8ab4-37772ea94925",
								"type": "text/javascript",
								"exec": [
									"postman.setEnvironmentVariable(\"InstituitionId\", JSON.parse(responseBody)[0].id);"
								]
							}
						}
					],
					"request": {
						"method": "GET",
						"header": [
							{
								"key": "Authorization",
								"value": "Bearer  {{UserToken}}"
							}
						],
						"body": {
							"mode": "raw",
							"raw": ""
						},
						"url": {
							"raw": "{{host}}/api/instituition",
							"host": [
								"{{host}}"
							],
							"path": [
								"api",
								"instituition"
							]
						}
					},
					"response": []
				},
				{
					"name": "{{host}}/api/instituition",
					"request": {
						"method": "POST",
						"header": [
							{
								"key": "Content-Type",
								"value": "application/json"
							},
							{
								"key": "Authorization",
								"value": "Bearer {{UserToken}}"
							}
						],
						"body": {
							"mode": "raw",
							"raw": "{\n  \"name\":\"Escola tal\"\n}"
						},
						"url": {
							"raw": "{{host}}/api/instituition",
							"host": [
								"{{host}}"
							],
							"path": [
								"api",
								"instituition"
							]
						}
					},
					"response": []
				},
				{
					"name": "{{host}}/api/instituition/{id}",
					"event": [
						{
							"listen": "test",
							"script": {
								"id": "5c5e15f5-ebbc-44f0-911c-090f273834c9",
								"type": "text/javascript",
								"exec": [
									"postman.setEnvironmentVariable(\"InstituitionId\", JSON.parse(responseBody).id);"
								]
							}
						}
					],
					"request": {
						"method": "GET",
						"header": [
							{
								"key": "Authorization",
								"value": "Bearer {{UserToken}}"
							}
						],
						"body": {
							"mode": "raw",
							"raw": ""
						},
						"url": {
							"raw": "{{host}}/api/instituition/{{InstituitionId}}",
							"host": [
								"{{host}}"
							],
							"path": [
								"api",
								"instituition",
								"{{InstituitionId}}"
							]
						}
					},
					"response": []
				},
				{
					"name": "{{host}}/api/instituition/{id}",
					"request": {
						"method": "PUT",
						"header": [
							{
								"key": "Content-Type",
								"value": "application/json"
							},
							{
								"key": "Authorization",
								"value": "Bearer {{UserToken}}"
							}
						],
						"body": {
							"mode": "raw",
							"raw": "{\n  \"name\":\"Escola de Capacitação Destino\"\n}"
						},
						"url": {
							"raw": "{{host}}/api/instituition/{{InstituitionId}}",
							"host": [
								"{{host}}"
							],
							"path": [
								"api",
								"instituition",
								"{{InstituitionId}}"
							]
						}
					},
					"response": []
				},
				{
					"name": "{{host}}/api/instituition/{id}",
					"event": [
						{
							"listen": "test",
							"script": {
								"id": "f959454a-5156-466e-ae70-4047353ddc35",
								"type": "text/javascript",
								"exec": [
									""
								]
							}
						}
					],
					"request": {
						"method": "DELETE",
						"header": [
							{
								"key": "Authorization",
								"value": "Bearer {{UserToken}}"
							}
						],
						"body": {
							"mode": "raw",
							"raw": ""
						},
						"url": {
							"raw": "{{host}}/api/instituition/{{InstituitionId}}",
							"host": [
								"{{host}}"
							],
							"path": [
								"api",
								"instituition",
								"{{InstituitionId}}"
							]
						}
					},
					"response": []
				}
			],
			"event": [
				{
					"listen": "prerequest",
					"script": {
						"id": "00ca411f-a66c-40ba-9994-5f4e36b040c1",
						"type": "text/javascript",
						"exec": [
							""
						]
					}
				},
				{
					"listen": "test",
					"script": {
						"id": "a8fcf9d6-4d2f-461b-af91-0f3f66e8f085",
						"type": "text/javascript",
						"exec": [
							""
						]
					}
				}
			]
		},
		{
			"name": "Module",
			"description": null,
			"item": [
				{
					"name": "{{host}}/api/module",
					"event": [
						{
							"listen": "test",
							"script": {
								"id": "da174273-49d9-4ce5-ad22-59c173074d92",
								"type": "text/javascript",
								"exec": [
									"postman.setEnvironmentVariable(\"ModuleId\", JSON.parse(responseBody)[0].id);"
								]
							}
						}
					],
					"request": {
						"method": "GET",
						"header": [
							{
								"key": "Authorization",
								"value": "Bearer  {{UserToken}}"
							}
						],
						"body": {
							"mode": "raw",
							"raw": ""
						},
						"url": {
							"raw": "{{host}}/api/module",
							"host": [
								"{{host}}"
							],
							"path": [
								"api",
								"module"
							]
						}
					},
					"response": []
				},
				{
					"name": "{{host}}/api/module",
					"request": {
						"method": "POST",
						"header": [
							{
								"key": "Content-Type",
								"value": "application/json"
							},
							{
								"key": "Authorization",
								"value": "Bearer {{UserToken}}"
							}
						],
						"body": {
							"mode": "raw",
							"raw": "{\n  \"name\":\"Módulo 1\",\n  \"instituition_id\":\"{{InstituitionId}}\"\n}"
						},
						"url": {
							"raw": "{{host}}/api/module",
							"host": [
								"{{host}}"
							],
							"path": [
								"api",
								"module"
							]
						}
					},
					"response": []
				},
				{
					"name": "{{host}}/api/module/{id}",
					"event": [
						{
							"listen": "test",
							"script": {
								"id": "73eec54b-6d3c-4959-8cbc-d7324fc26c54",
								"type": "text/javascript",
								"exec": [
									"postman.setEnvironmentVariable(\"ModuleId\", JSON.parse(responseBody).id);"
								]
							}
						}
					],
					"request": {
						"method": "GET",
						"header": [
							{
								"key": "Authorization",
								"value": "Bearer {{UserToken}}"
							}
						],
						"body": {
							"mode": "raw",
							"raw": ""
						},
						"url": {
							"raw": "{{host}}/api/module/{{ModuleId}}",
							"host": [
								"{{host}}"
							],
							"path": [
								"api",
								"module",
								"{{ModuleId}}"
							]
						}
					},
					"response": []
				},
				{
					"name": "{{host}}/api/module/{id}",
					"request": {
						"method": "PUT",
						"header": [
							{
								"key": "Content-Type",
								"value": "application/json"
							},
							{
								"key": "Authorization",
								"value": "Bearer {{UserToken}}"
							}
						],
						"body": {
							"mode": "raw",
							"raw": "{\n  \"name\":\"Módulo 2\",\n  \"instituition_id\":\"{{InstituitionId}}\"\n}"
						},
						"url": {
							"raw": "{{host}}/api/module/{{ModuleId}}",
							"host": [
								"{{host}}"
							],
							"path": [
								"api",
								"module",
								"{{ModuleId}}"
							]
						}
					},
					"response": []
				},
				{
					"name": "{{host}}/api/module/{id}",
					"event": [
						{
							"listen": "test",
							"script": {
								"id": "f959454a-5156-466e-ae70-4047353ddc35",
								"type": "text/javascript",
								"exec": [
									""
								]
							}
						}
					],
					"request": {
						"method": "DELETE",
						"header": [
							{
								"key": "Authorization",
								"value": "Bearer {{UserToken}}"
							}
						],
						"body": {
							"mode": "raw",
							"raw": ""
						},
						"url": {
							"raw": "{{host}}/api/module/{{ModuleId}}",
							"host": [
								"{{host}}"
							],
							"path": [
								"api",
								"module",
								"{{ModuleId}}"
							]
						}
					},
					"response": []
				}
			],
			"event": [
				{
					"listen": "prerequest",
					"script": {
						"id": "00ca411f-a66c-40ba-9994-5f4e36b040c1",
						"type": "text/javascript",
						"exec": [
							""
						]
					}
				},
				{
					"listen": "test",
					"script": {
						"id": "a8fcf9d6-4d2f-461b-af91-0f3f66e8f085",
						"type": "text/javascript",
						"exec": [
							""
						]
					}
				}
			]
		}
	]
}